<svg width="51" height="52" viewBox="0 0 51 52" fill="none" xmlns="http://www.w3.org/2000/svg">
<rect y="0.5" width="51" height="51" rx="11" fill="#F57B51"/>
<path d="M39.8286 27.9069C42.5243 24.1492 42.7135 19.233 40.2346 15.7847C38.5506 13.4478 35.763 12.0432 32.9566 12.1324C29.8491 12.2244 27.1099 14.1637 25.9933 16.7531C24.8767 14.1637 22.1375 12.2244 19.0305 12.1324C16.2278 12.0477 13.4365 13.4472 11.752 15.7849C8.49174 20.3149 10.1602 26.3839 13.657 29.6342C14.9195 30.8083 16.3398 31.8192 17.7133 32.7967C18.2187 33.1562 18.7236 33.5155 19.2191 33.8815C21.8832 35.8618 23.9065 37.7055 25.5864 39.6837C25.688 39.803 25.837 39.8717 25.9933 39.8717C26.1501 39.8717 26.2986 39.8027 26.4002 39.6834C27.2526 38.6785 28.2014 37.7116 29.2721 36.7412C30.5138 38.6238 32.6448 39.8704 35.0637 39.8704C38.8883 39.8704 41.9999 36.7589 41.9999 32.9342C41.9999 30.9552 41.1625 29.1718 39.8286 27.9069ZM25.9933 38.5238C24.3421 36.6585 22.3761 34.8986 19.8543 33.0241C19.3525 32.6534 18.8424 32.2905 18.3323 31.9273C16.9864 30.9696 15.5947 29.9796 14.3833 28.8526C11.2257 25.9175 9.70212 20.46 12.618 16.4084C14.0753 14.3861 16.5545 13.1208 18.9987 13.199C22.5007 13.3026 25.4597 16.0932 25.4597 19.2926C25.4597 19.5873 25.6984 19.8262 25.9933 19.8262C26.2882 19.8262 26.5268 19.5872 26.5268 19.2926C26.5268 16.0931 29.4859 13.3026 32.9884 13.199C35.4133 13.1219 37.9112 14.3862 39.3687 16.4079C41.5689 19.4688 41.3959 23.8497 39.0017 27.2311C37.8819 26.4555 36.5259 25.9981 35.0637 25.9981C31.2392 25.9981 28.1275 29.1096 28.1275 32.9343C28.1275 33.9485 28.3516 34.9095 28.7444 35.7786C27.729 36.6867 26.8186 37.5911 25.9933 38.5238ZM35.0637 38.8034C31.8275 38.8034 29.1946 36.1705 29.1946 32.9342C29.1946 29.698 31.8274 27.0651 35.0637 27.0651C38.3 27.0651 40.9329 29.6979 40.9329 32.9342C40.9329 36.1705 38.3 38.8034 35.0637 38.8034Z" fill="white"/>
<path d="M38.2614 32.3988H35.5936V29.731C35.5936 29.4363 35.3549 29.1975 35.0601 29.1975C34.7651 29.1975 34.5265 29.4364 34.5265 29.731V32.3988H31.8587C31.5638 32.3988 31.3252 32.6377 31.3252 32.9323C31.3252 33.227 31.5639 33.4659 31.8587 33.4659H34.5265V36.1337C34.5265 36.4284 34.7652 36.6672 35.0601 36.6672C35.355 36.6672 35.5936 36.4283 35.5936 36.1337V33.4659H38.2614C38.5563 33.4659 38.7949 33.227 38.7949 32.9323C38.7949 32.6377 38.5563 32.3988 38.2614 32.3988Z" fill="white"/>
</svg>
